<?xml version="1.0" encoding="UTF-8" standalone="no"?>
<!-- Created with Inkscape (http://www.inkscape.org/) -->
<svg
   xmlns:dc="http://purl.org/dc/elements/1.1/"
   xmlns:cc="http://creativecommons.org/ns#"
   xmlns:rdf="http://www.w3.org/1999/02/22-rdf-syntax-ns#"
   xmlns:svg="http://www.w3.org/2000/svg"
   xmlns="http://www.w3.org/2000/svg"
   xmlns:xlink="http://www.w3.org/1999/xlink"
   xmlns:sodipodi="http://sodipodi.sourceforge.net/DTD/sodipodi-0.dtd"
   xmlns:inkscape="http://www.inkscape.org/namespaces/inkscape"
   version="1.0"
   width="256"
   height="256"
   id="svg2160"
   sodipodi:version="0.32"
   inkscape:version="0.46"
   sodipodi:docname="folder_open.svg"
   inkscape:output_extension="org.inkscape.output.svg.inkscape"
   sodipodi:docbase="/home/herve/wine/wine2/wine/programs/winefile">
  <metadata
     id="metadata33">
    <rdf:RDF>
      <cc:Work
         rdf:about="">
        <dc:format>image/svg+xml</dc:format>
        <dc:type
           rdf:resource="http://purl.org/dc/dcmitype/StillImage" />
      </cc:Work>
    </rdf:RDF>
  </metadata>
  <sodipodi:namedview
     inkscape:window-height="722"
     inkscape:window-width="800"
     inkscape:pageshadow="2"
     inkscape:pageopacity="0.0"
     guidetolerance="10.0"
     gridtolerance="10.0"
     objecttolerance="10.0"
     borderopacity="1.0"
     bordercolor="#666666"
     pagecolor="#ffffff"
     id="base"
     inkscape:zoom="1.4765626"
     inkscape:cx="158.1174"
     inkscape:cy="127.03408"
     inkscape:window-x="228"
     inkscape:window-y="299"
     inkscape:current-layer="svg2160"
     showgrid="false" />
  <defs
     id="defs2162">
    <inkscape:perspective
       sodipodi:type="inkscape:persp3d"
       inkscape:vp_x="0 : 128 : 1"
       inkscape:vp_y="0 : 1000 : 0"
       inkscape:vp_z="256 : 128 : 1"
       inkscape:persp3d-origin="128 : 85.333333 : 1"
       id="perspective106" />
    <linearGradient
       inkscape:collect="always"
       id="linearGradient3438">
      <stop
         style="stop-color:#ffffff;stop-opacity:1;"
         offset="0"
         id="stop3440" />
      <stop
         style="stop-color:#ffffff;stop-opacity:0;"
         offset="1"
         id="stop3442" />
    </linearGradient>
    <linearGradient
       inkscape:collect="always"
       id="linearGradient3392">
      <stop
         style="stop-color:#de8700;stop-opacity:1;"
         offset="0"
         id="stop3394" />
      <stop
         style="stop-color:#de8700;stop-opacity:0;"
         offset="1"
         id="stop3396" />
    </linearGradient>
    <linearGradient
       inkscape:collect="always"
       id="linearGradient3613">
      <stop
         style="stop-color:#2b83ff;stop-opacity:1;"
         offset="0"
         id="stop3615" />
      <stop
         style="stop-color:#2b83ff;stop-opacity:0;"
         offset="1"
         id="stop3617" />
    </linearGradient>
    <linearGradient
       inkscape:collect="always"
       id="linearGradient3481">
      <stop
         style="stop-color:#2b83ff;stop-opacity:1;"
         offset="0"
         id="stop3483" />
      <stop
         style="stop-color:#2b83ff;stop-opacity:0;"
         offset="1"
         id="stop3485" />
    </linearGradient>
    <linearGradient
       inkscape:collect="always"
       xlink:href="#linearGradient5244"
       id="linearGradient2209"
       gradientUnits="userSpaceOnUse"
       gradientTransform="matrix(9.5418858,0,0,9.5735368,-0.2445693,-41.448847)"
       x1="9.3304758"
       y1="15.300295"
       x2="17.996317"
       y2="15.300295" />
    <linearGradient
       inkscape:collect="always"
       id="linearGradient3551">
      <stop
         style="stop-color:#000000;stop-opacity:1;"
         offset="0"
         id="stop3553" />
      <stop
         style="stop-color:#000000;stop-opacity:0;"
         offset="1"
         id="stop3555" />
    </linearGradient>
    <linearGradient
       inkscape:collect="always"
       id="linearGradient3541">
      <stop
         style="stop-color:#ffffff;stop-opacity:1;"
         offset="0"
         id="stop3543" />
      <stop
         style="stop-color:#ffffff;stop-opacity:0;"
         offset="1"
         id="stop3545" />
    </linearGradient>
    <linearGradient
       inkscape:collect="always"
       id="linearGradient3513">
      <stop
         style="stop-color:#ffffff;stop-opacity:1;"
         offset="0"
         id="stop3515" />
      <stop
         style="stop-color:#ffffff;stop-opacity:0;"
         offset="1"
         id="stop3517" />
    </linearGradient>
    <linearGradient
       id="linearGradient5244">
      <stop
         style="stop-color:#550000;stop-opacity:1"
         offset="0"
         id="stop5246" />
      <stop
         style="stop-color:#550000;stop-opacity:0"
         offset="1"
         id="stop5248" />
    </linearGradient>
    <linearGradient
       id="linearGradient3312">
      <stop
         style="stop-color:#786721;stop-opacity:1"
         offset="0"
         id="stop3314" />
      <stop
         style="stop-color:#a0892c;stop-opacity:0"
         offset="1"
         id="stop3316" />
    </linearGradient>
    <linearGradient
       id="linearGradient3256">
      <stop
         style="stop-color:#806600;stop-opacity:1"
         offset="0"
         id="stop3258" />
      <stop
         style="stop-color:#806600;stop-opacity:0.49803922"
         offset="0.5"
         id="stop3274" />
      <stop
         style="stop-color:#806600;stop-opacity:0.24705882"
         offset="0.75"
         id="stop3276" />
      <stop
         style="stop-color:#806600;stop-opacity:0"
         offset="1"
         id="stop3260" />
    </linearGradient>
    <linearGradient
       id="linearGradient3224">
      <stop
         style="stop-color:#fe8dc0;stop-opacity:0.12156863"
         offset="0"
         id="stop3236" />
      <stop
         style="stop-color:#005e5f;stop-opacity:0"
         offset="1"
         id="stop3228" />
    </linearGradient>
    <linearGradient
       x1="15.591757"
       y1="16"
       x2="29.09375"
       y2="16"
       id="linearGradient3325"
       xlink:href="#linearGradient3312"
       gradientUnits="userSpaceOnUse"
       gradientTransform="matrix(-5.4581085,-7.8526237,-7.8266621,5.4762133,340.09049,166.46714)" />
    <linearGradient
       x1="15.591757"
       y1="16"
       x2="29.09375"
       y2="16"
       id="linearGradient3329"
       xlink:href="#linearGradient3312"
       gradientUnits="userSpaceOnUse"
       gradientTransform="matrix(5.4581085,7.8526237,-7.8266621,5.4762133,163.93143,-86.89372)" />
    <linearGradient
       x1="9.3304758"
       y1="15.300295"
       x2="17.996317"
       y2="15.300295"
       id="linearGradient5250"
       xlink:href="#linearGradient5244"
       gradientUnits="userSpaceOnUse"
       gradientTransform="matrix(9.5418858,0,0,9.5735368,-0.2445693,-41.448847)" />
    <radialGradient
       inkscape:collect="always"
       xlink:href="#linearGradient3513"
       id="radialGradient3519"
       cx="107.27071"
       cy="65.402931"
       fx="107.27071"
       fy="65.402931"
       r="19.950892"
       gradientTransform="matrix(1,0,0,0.878577,-8.1410809,6.0258725)"
       gradientUnits="userSpaceOnUse" />
    <radialGradient
       inkscape:collect="always"
       xlink:href="#linearGradient3541"
       id="radialGradient3547"
       cx="173.08876"
       cy="149.6644"
       fx="173.08876"
       fy="149.6644"
       r="71.726373"
       gradientTransform="matrix(1,0,0,0.6877549,0,46.731982)"
       gradientUnits="userSpaceOnUse" />
    <linearGradient
       inkscape:collect="always"
       xlink:href="#linearGradient3551"
       id="linearGradient3557"
       x1="123.67507"
       y1="184.43211"
       x2="113.7653"
       y2="222.26419"
       gradientUnits="userSpaceOnUse" />
    <radialGradient
       inkscape:collect="always"
       xlink:href="#linearGradient3513"
       id="radialGradient3577"
       gradientUnits="userSpaceOnUse"
       gradientTransform="matrix(1,0,0,0.878577,-8.1410809,6.0258725)"
       cx="107.27071"
       cy="65.402931"
       fx="107.27071"
       fy="65.402931"
       r="19.950892" />
    <radialGradient
       inkscape:collect="always"
       xlink:href="#linearGradient3541"
       id="radialGradient3579"
       gradientUnits="userSpaceOnUse"
       gradientTransform="matrix(1,0,0,0.6877549,0,46.731982)"
       cx="173.08876"
       cy="149.6644"
       fx="173.08876"
       fy="149.6644"
       r="71.726373" />
    <linearGradient
       inkscape:collect="always"
       xlink:href="#linearGradient3551"
       id="linearGradient3581"
       gradientUnits="userSpaceOnUse"
       x1="123.67507"
       y1="184.43211"
       x2="113.7653"
       y2="222.26419" />
    <linearGradient
       inkscape:collect="always"
       xlink:href="#linearGradient5244"
       id="linearGradient3749"
       gradientUnits="userSpaceOnUse"
       gradientTransform="matrix(9.5418858,0,0,9.5735368,-0.2445693,-41.448847)"
       x1="9.3304758"
       y1="15.300295"
       x2="17.996317"
       y2="15.300295" />
    <linearGradient
       inkscape:collect="always"
       xlink:href="#linearGradient5244"
       id="linearGradient3759"
       gradientUnits="userSpaceOnUse"
       gradientTransform="matrix(6.9183911,-0.6804129,0.6420938,7.3799858,60.662073,-20.81452)"
       x1="9.3304758"
       y1="15.300295"
       x2="17.996317"
       y2="15.300295" />
    <linearGradient
       inkscape:collect="always"
       xlink:href="#linearGradient5244"
       id="linearGradient3781"
       gradientUnits="userSpaceOnUse"
       gradientTransform="matrix(7.6981053,0,0,7.5253696,-204.77612,-47.220728)"
       x1="9.3304758"
       y1="15.300295"
       x2="17.996317"
       y2="15.300295" />
    <linearGradient
       inkscape:collect="always"
       xlink:href="#linearGradient5244"
       id="linearGradient3796"
       gradientUnits="userSpaceOnUse"
       gradientTransform="matrix(7.6981053,0,0,7.5253696,-204.77612,-47.220728)"
       x1="9.3304758"
       y1="15.300295"
       x2="17.996317"
       y2="15.300295" />
    <linearGradient
       inkscape:collect="always"
       xlink:href="#linearGradient3551"
       id="linearGradient3799"
       gradientUnits="userSpaceOnUse"
       x1="123.67507"
       y1="184.43211"
       x2="113.7653"
       y2="222.26419"
       gradientTransform="translate(-31.127663,12.451065)" />
    <radialGradient
       inkscape:collect="always"
       xlink:href="#linearGradient3541"
       id="radialGradient3802"
       gradientUnits="userSpaceOnUse"
       gradientTransform="matrix(1,0,0,0.6877549,-31.127663,59.183047)"
       cx="173.08876"
       cy="149.6644"
       fx="173.08876"
       fy="149.6644"
       r="71.726373" />
    <radialGradient
       inkscape:collect="always"
       xlink:href="#linearGradient3513"
       id="radialGradient3805"
       gradientUnits="userSpaceOnUse"
       gradientTransform="matrix(1,0,0,0.878577,-36.634864,17.519163)"
       cx="107.27071"
       cy="65.402931"
       fx="107.27071"
       fy="65.402931"
       r="19.950892" />
    <radialGradient
       inkscape:collect="always"
       xlink:href="#linearGradient3541"
       id="radialGradient3828"
       gradientUnits="userSpaceOnUse"
       gradientTransform="matrix(1,0,0,0.6877549,-31.127663,59.183047)"
       cx="173.08876"
       cy="149.6644"
       fx="173.08876"
       fy="149.6644"
       r="71.726373" />
    <linearGradient
       inkscape:collect="always"
       xlink:href="#linearGradient3551"
       id="linearGradient3830"
       gradientUnits="userSpaceOnUse"
       gradientTransform="translate(-31.127663,12.451065)"
       x1="123.67507"
       y1="184.43211"
       x2="113.7653"
       y2="222.26419" />
    <radialGradient
       inkscape:collect="always"
       xlink:href="#linearGradient3513"
       id="radialGradient3832"
       gradientUnits="userSpaceOnUse"
       gradientTransform="matrix(1,0,0,0.878577,-36.634864,17.519163)"
       cx="107.27071"
       cy="65.402931"
       fx="107.27071"
       fy="65.402931"
       r="19.950892" />
    <linearGradient
       inkscape:collect="always"
       xlink:href="#linearGradient5244"
       id="linearGradient3841"
       gradientUnits="userSpaceOnUse"
       gradientTransform="matrix(9.5418858,0,0,9.5735368,-0.2445693,-41.448847)"
       x1="9.3304758"
       y1="15.300295"
       x2="17.996317"
       y2="15.300295" />
    <linearGradient
       inkscape:collect="always"
       xlink:href="#linearGradient3481"
       id="linearGradient3487"
       x1="14.05498"
       y1="119.9116"
       x2="219.64191"
       y2="119.9116"
       gradientUnits="userSpaceOnUse" />
    <linearGradient
       inkscape:collect="always"
       xlink:href="#linearGradient3481"
       id="linearGradient3489"
       gradientUnits="userSpaceOnUse"
       x1="14.05498"
       y1="119.9116"
       x2="219.64191"
       y2="119.9116" />
    <linearGradient
       inkscape:collect="always"
       xlink:href="#linearGradient3481"
       id="linearGradient3491"
       gradientUnits="userSpaceOnUse"
       x1="14.05498"
       y1="119.9116"
       x2="219.64191"
       y2="119.9116" />
    <linearGradient
       inkscape:collect="always"
       xlink:href="#linearGradient3481"
       id="linearGradient3493"
       gradientUnits="userSpaceOnUse"
       x1="14.05498"
       y1="119.9116"
       x2="219.64191"
       y2="119.9116" />
    <linearGradient
       inkscape:collect="always"
       xlink:href="#linearGradient3481"
       id="linearGradient3495"
       gradientUnits="userSpaceOnUse"
       x1="14.05498"
       y1="119.9116"
       x2="219.64191"
       y2="119.9116" />
    <linearGradient
       inkscape:collect="always"
       xlink:href="#linearGradient3481"
       id="linearGradient3497"
       gradientUnits="userSpaceOnUse"
       x1="11.181658"
       y1="232.92896"
       x2="242.62849"
       y2="-19.923439" />
    <linearGradient
       inkscape:collect="always"
       xlink:href="#linearGradient3481"
       id="linearGradient3499"
       gradientUnits="userSpaceOnUse"
       x1="14.05498"
       y1="119.9116"
       x2="219.64191"
       y2="119.9116" />
    <linearGradient
       inkscape:collect="always"
       xlink:href="#linearGradient3481"
       id="linearGradient3501"
       gradientUnits="userSpaceOnUse"
       x1="14.05498"
       y1="119.9116"
       x2="219.64191"
       y2="119.9116" />
    <linearGradient
       inkscape:collect="always"
       xlink:href="#linearGradient3481"
       id="linearGradient3503"
       gradientUnits="userSpaceOnUse"
       x1="14.05498"
       y1="119.9116"
       x2="219.64191"
       y2="119.9116" />
    <linearGradient
       inkscape:collect="always"
       xlink:href="#linearGradient3481"
       id="linearGradient3505"
       gradientUnits="userSpaceOnUse"
       x1="14.05498"
       y1="119.9116"
       x2="219.64191"
       y2="119.9116" />
    <linearGradient
       inkscape:collect="always"
       xlink:href="#linearGradient3481"
       id="linearGradient3564"
       gradientUnits="userSpaceOnUse"
       x1="14.05498"
       y1="119.9116"
       x2="219.64191"
       y2="119.9116" />
    <linearGradient
       inkscape:collect="always"
       xlink:href="#linearGradient3481"
       id="linearGradient3576"
       gradientUnits="userSpaceOnUse"
       x1="14.05498"
       y1="119.9116"
       x2="219.64191"
       y2="119.9116"
       gradientTransform="translate(0.9577801,3.1266834)" />
    <linearGradient
       inkscape:collect="always"
       xlink:href="#linearGradient3481"
       id="linearGradient3579"
       gradientUnits="userSpaceOnUse"
       x1="14.05498"
       y1="119.9116"
       x2="219.64191"
       y2="119.9116"
       gradientTransform="translate(4.9577801,3.1266834)" />
    <linearGradient
       inkscape:collect="always"
       xlink:href="#linearGradient3481"
       id="linearGradient3582"
       gradientUnits="userSpaceOnUse"
       x1="14.05498"
       y1="119.9116"
       x2="219.64191"
       y2="119.9116"
       gradientTransform="translate(8.9577801,3.1266834)" />
    <linearGradient
       inkscape:collect="always"
       xlink:href="#linearGradient3481"
       id="linearGradient3585"
       gradientUnits="userSpaceOnUse"
       x1="14.05498"
       y1="119.9116"
       x2="219.64191"
       y2="119.9116"
       gradientTransform="translate(0.9577801,-0.8733166)" />
    <linearGradient
       inkscape:collect="always"
       xlink:href="#linearGradient3481"
       id="linearGradient3588"
       gradientUnits="userSpaceOnUse"
       x1="11.181658"
       y1="232.92896"
       x2="242.62849"
       y2="-19.923439"
       gradientTransform="translate(4.9577801,-0.8733166)" />
    <linearGradient
       inkscape:collect="always"
       xlink:href="#linearGradient3481"
       id="linearGradient3591"
       gradientUnits="userSpaceOnUse"
       x1="14.05498"
       y1="119.9116"
       x2="219.64191"
       y2="119.9116"
       gradientTransform="translate(12.788876,0.8733288)" />
    <linearGradient
       inkscape:collect="always"
       xlink:href="#linearGradient3481"
       id="linearGradient3594"
       gradientUnits="userSpaceOnUse"
       x1="14.05498"
       y1="119.9116"
       x2="219.64191"
       y2="119.9116"
       gradientTransform="translate(0.9577801,-4.8733166)" />
    <linearGradient
       inkscape:collect="always"
       xlink:href="#linearGradient3481"
       id="linearGradient3597"
       gradientUnits="userSpaceOnUse"
       x1="14.05498"
       y1="119.9116"
       x2="219.64191"
       y2="119.9116"
       gradientTransform="translate(9.7466509,-3.8310908)" />
    <linearGradient
       inkscape:collect="always"
       xlink:href="#linearGradient3481"
       id="linearGradient3600"
       gradientUnits="userSpaceOnUse"
       x1="14.05498"
       y1="119.9116"
       x2="219.64191"
       y2="119.9116"
       gradientTransform="translate(4.1689089,8.8733288)" />
    <linearGradient
       inkscape:collect="always"
       xlink:href="#linearGradient3613"
       id="linearGradient3619"
       x1="15.01276"
       y1="125.91161"
       x2="223.81083"
       y2="125.91161"
       gradientUnits="userSpaceOnUse" />
    <linearGradient
       inkscape:collect="always"
       xlink:href="#linearGradient3613"
       id="linearGradient3621"
       gradientUnits="userSpaceOnUse"
       x1="15.01276"
       y1="125.91161"
       x2="223.81083"
       y2="125.91161" />
    <linearGradient
       inkscape:collect="always"
       xlink:href="#linearGradient3613"
       id="linearGradient3623"
       gradientUnits="userSpaceOnUse"
       x1="15.01276"
       y1="125.91161"
       x2="223.81083"
       y2="125.91161" />
    <linearGradient
       inkscape:collect="always"
       xlink:href="#linearGradient3613"
       id="linearGradient3625"
       gradientUnits="userSpaceOnUse"
       x1="15.01276"
       y1="125.91161"
       x2="223.81083"
       y2="125.91161" />
    <linearGradient
       inkscape:collect="always"
       xlink:href="#linearGradient3613"
       id="linearGradient3627"
       gradientUnits="userSpaceOnUse"
       x1="15.01276"
       y1="125.91161"
       x2="223.81083"
       y2="125.91161" />
    <linearGradient
       inkscape:collect="always"
       xlink:href="#linearGradient3613"
       id="linearGradient3629"
       gradientUnits="userSpaceOnUse"
       x1="15.01276"
       y1="125.91161"
       x2="223.81083"
       y2="125.91161" />
    <linearGradient
       inkscape:collect="always"
       xlink:href="#linearGradient3613"
       id="linearGradient3631"
       gradientUnits="userSpaceOnUse"
       x1="15.01276"
       y1="125.91161"
       x2="223.81083"
       y2="125.91161" />
    <linearGradient
       inkscape:collect="always"
       xlink:href="#linearGradient3613"
       id="linearGradient3633"
       gradientUnits="userSpaceOnUse"
       x1="15.01276"
       y1="125.91161"
       x2="223.81083"
       y2="125.91161" />
    <linearGradient
       inkscape:collect="always"
       xlink:href="#linearGradient3613"
       id="linearGradient3635"
       gradientUnits="userSpaceOnUse"
       x1="15.01276"
       y1="125.91161"
       x2="223.81083"
       y2="125.91161" />
    <linearGradient
       inkscape:collect="always"
       xlink:href="#linearGradient3613"
       id="linearGradient3637"
       gradientUnits="userSpaceOnUse"
       x1="15.01276"
       y1="125.91161"
       x2="223.81083"
       y2="125.91161" />
    <linearGradient
       inkscape:collect="always"
       xlink:href="#linearGradient3392"
       id="linearGradient3398"
       x1="98.959854"
       y1="159.00865"
       x2="99.176964"
       y2="28.272461"
       gradientUnits="userSpaceOnUse"
       gradientTransform="matrix(1.1582652,0,0,1.1439588,-27.431882,-19.141592)" />
    <linearGradient
       inkscape:collect="always"
       xlink:href="#linearGradient3438"
       id="linearGradient3444"
       x1="157.27951"
       y1="83.600647"
       x2="154.95488"
       y2="196.618"
       gradientUnits="userSpaceOnUse"
       gradientTransform="matrix(1.1582652,0,0,1.1439588,-25.213169,-43.245986)" />
  </defs>
  <path
     style="opacity:1;fill:#ffff00;fill-opacity:1;stroke:#000000;stroke-width:3;stroke-miterlimit:4;stroke-dasharray:none;stroke-opacity:1"
     d="M 29.17833,44.800641 C 26.496396,45.267696 24.328094,49.608013 24.328094,54.519417 L 20.418949,65.714543 L 10.35652,68.139818 C 7.674587,68.606873 5.506285,72.94719 5.506285,77.858595 L 5.506285,226.02688 C 5.506285,230.93828 7.674587,234.48135 10.35652,234.01428 L 225.03374,196.62859 C 227.71566,196.16153 229.84778,191.86958 229.84778,186.95818 L 229.84778,38.789888 C 229.84778,33.878483 227.71566,30.287075 225.03374,30.754128 L 93.535019,53.198685 L 88.648009,43.318208 C 88.648009,38.406805 86.515898,34.815396 83.833969,35.28245 L 29.17833,44.800641 z"
     id="rect2391"
     sodipodi:nodetypes="ccccccccccccccc" />
  <path
     style="opacity:1;fill:url(#linearGradient3398);fill-opacity:1;stroke:none;stroke-width:5;stroke-miterlimit:4;stroke-dasharray:none;stroke-opacity:1"
     d="M 32.0976,47.234759 C 29.415666,47.701813 26.138008,47.111686 26.138008,52.02309 L 21.674185,67.600834 L 13.830469,70.573935 C 11.148536,71.040989 6.761521,71.546517 6.761521,76.457922 L 7.870877,224.07838 C 7.870877,228.98978 10.03918,232.53285 12.721113,232.06578 L 227.39832,194.68009 C 230.08025,194.21303 227.77493,190.46891 227.77493,185.55751 L 226.66558,37.937042 C 226.66558,33.025638 226.75219,32.721193 224.07026,33.188246 L 91.462183,57.276283 L 85.46582,43.561016 C 85.46582,38.649613 84.997743,37.797341 82.315811,38.264395 L 32.0976,47.234759 z"
     id="path3380"
     sodipodi:nodetypes="ccccccccccccccc" />
  <path
     style="opacity:0.5141066;fill:#ffff08;fill-opacity:1;stroke:none;stroke-width:5.17608643;stroke-miterlimit:4;stroke-opacity:1"
     d="M 249.78951,64.728791 L 89.386873,91.978413 C 88.045902,92.211941 82.386876,100.02751 70.868481,103.3244 C 59.350086,106.62129 30.878728,107.5908 30.506073,109.47134 L 7.193275,227.11567 C 6.447963,230.87677 8.00705,233.52865 10.688984,233.0616 L 223.78605,195.95109 C 226.46798,195.48404 229.2271,192.08015 229.97241,188.31905 L 253.28521,70.674723 C 254.03052,66.913624 252.47144,64.261737 249.78951,64.728791 z"
     id="rect3366"
     sodipodi:nodetypes="ccsccccccc" />
  <path
     style="opacity:1;fill:url(#linearGradient3444);fill-opacity:1;stroke:#000000;stroke-width:3;stroke-miterlimit:4;stroke-dasharray:none;stroke-opacity:1"
     d="M 249.64702,66.83218 L 89.244376,94.081807 C 87.903406,94.315335 82.244381,102.13091 70.725985,105.42779 C 59.20759,108.72468 30.73623,109.69419 30.363575,111.57474 L 7.050776,229.21907 C 6.305464,232.98017 7.864552,235.63205 10.546485,235.16499 L 223.64356,198.05449 C 226.32549,197.58743 229.08461,194.18355 229.82993,190.42245 L 253.14272,72.778114 C 253.88803,69.017012 252.32895,66.365125 249.64702,66.83218 z"
     id="path3412"
     sodipodi:nodetypes="ccsccccccc" />
</svg>
